%YAML 1.1
%TAG !u! tag:unity3d.com,2011:
--- !u!1045 &1
EditorBuildSettings:
  m_ObjectHideFlags: 0
  serializedVersion: 2
  m_Scenes:
  - enabled: 1
    path: Assets/Scenes/LucieScene.unity
    guid: 4c03f0ab753b8f144b9370e60d07e7f9
  m_configObjects: {}
